{
    "src_folders" : ["tests"],
    "output_folder" : "reports",
    "globals_path" : "",
    "test_workers": {
        "enabled": true,
        "workers": "auto"
    },
    "selenium" : {
        "start_process" : true,
        "server_path" : "bin/selenium-server-standalone-3.141.59.jar",
        "log_path" : "",
        "port" : 4445,

        "cli_args" : {
            "webdriver.chrome.driver" : "bin/chromedriver"
        }
    },

    "test_settings" : {
        "default" : {
            "launch_url" : "http://localhost",
            "selenium_port"  : 4445,
            "selenium_host"  : "localhost",
            "silent": true,

            "screenshots" : {
                "enabled" : false,
                "path" : ""
            },

            "desiredCapabilities": {
                "browserName": "chrome"
            }
        },
        "chrome" : {
            "desiredCapabilities": {
                "browserName": "chrome"
            }
        },
        "firefox" : {
            "desiredCapabilities": {
                "browserName": "firefox"
            }
        }
    }
}